
{
  "result": true,
  "query": {
    "current_page": 1,
    "data": [
      {
        "id_album": 193,
        "type": "video",
        "cover": "C_BpH63Q-Jc",
        "album_name": null,
        "album_description": null,
        "total_assets": 3
      },
      {
        "id_album": 190,
        "type": "image",
        "cover": "uploads\/image\/gallery\/e1_200722105628.jpg",
        "album_name": "Ketua Umum PDI Perjuangan, Hj. Megawati Soekarnoputri Meresmikan 20 Kantor Partai",
        "album_description": "",
        "total_assets": 6
      },
      {
        "id_album": 187,
        "type": "image",
        "cover": "uploads\/image\/gallery\/13_200220112516.jpg",
        "album_name": "Megawati Soekarnoputri sampaikan pengarahan kepada 50 paslon Pilkada Serentak tahun 2020",
        "album_description": "",
        "total_assets": 13
      },
      {
        "id_album": 185,
        "type": "image",
        "cover": "uploads\/image\/gallery\/18_200208120743.jpg",
        "album_name": "Presiden ke-5 RI Megawati Soekarnoputri meresmikan patung Bung Karno di Akmil Magelang, 7\/2\/2020",
        "album_description": "",
        "total_assets": 19
      },
      {
        "id_album": 184,
        "type": "image",
        "cover": "uploads\/image\/gallery\/09_200131113543.jpg",
        "album_name": "Ketua Dewan Pengarah BPIP Menyampaikan Pidato dalam Rakornas Integrasi Riset dan Inovasi Indonesia",
        "album_description": "",
        "total_assets": 9
      },
      {
        "id_album": 183,
        "type": "image",
        "cover": "uploads\/image\/gallery\/01_200114120836.jpg",
        "album_name": "Penutupan HUT ke-47 PDI Perjuangan dan Rakernas I dengan Malam Kebudayaan",
        "album_description": "",
        "total_assets": 13
      },
      {
        "id_album": 182,
        "type": "image",
        "cover": "uploads\/image\/gallery\/20_200114110039.jpg",
        "album_name": "Sidang Paripurna dan Rapat Kelas Rakernas I tahun 2020 ",
        "album_description": "",
        "total_assets": 25
      },
      {
        "id_album": 181,
        "type": "image",
        "cover": "uploads\/image\/gallery\/09_200111113625.jpg",
        "album_name": "Ketum PDI Perjuangan melihat pameran rempah-rempah Nusantara bagian dari HUT ke-47 dan Rakernas 1",
        "album_description": "",
        "total_assets": 8
      },
      {
        "id_album": 180,
        "type": "image",
        "cover": "uploads\/image\/gallery\/22_200111042022.jpg",
        "album_name": "Peringatan HUT PDI Perjuangan ke-47 dan Rapat Kerja Nasional 1 (RAKERNAS 1) JIEXPO Kemayoran 2020",
        "album_description": "",
        "total_assets": 16
      },
      {
        "id_album": 179,
        "type": "image",
        "cover": "uploads\/image\/gallery\/19_200108073202.jpg",
        "album_name": "Penganugerahan Gelar Doktor Honoris Causa dari Universitas Soka, Tokyo, Jepang",
        "album_description": "",
        "total_assets": 18
      }
    ],
    "first_page_url": "http:\/\/atur.biar.pw\/api\/gallery\/album?page=1",
    "from": 1,
    "last_page": 17,
    "last_page_url": "http:\/\/atur.biar.pw\/api\/gallery\/album?page=17",
    "next_page_url": "http:\/\/atur.biar.pw\/api\/gallery\/album?page=2",
    "path": "http:\/\/atur.biar.pw\/api\/gallery\/album",
    "per_page": 10,
    "prev_page_url": null,
    "to": 10,
    "total": 168
  }
}
