{"result":true,"query":{"current_page":1,"data":[{"id":2131,"id_album":190,"type":"image","path":"uploads\/image\/gallery\/e1_200722105628.jpg","title":"Ketua Umum PDI Perjuangan, Megawati Soekarnoputri meresmikan 20 Kantor Partai","description":"<p>Ketua Umum PDI Perjuangan Megawati Soekarnoputri meresmikan dan menandatangani 20 prasasti &nbsp;kantor partai di sejumlah daerah melalui daring. &nbsp;22\/7\/2020.<\/p>","author":55,"created_at":"2020-07-22 15:56:28","updated_at":"2020-11-06 08:33:13","author_name":"PDI Perjuangan"},{"id":2130,"id_album":190,"type":"image","path":"uploads\/image\/gallery\/h1_200722105441.jpg","title":"Ketua Umum PDI Perjuangan, Hj. Megawati Soekarnoputri Meresmikan 20 Kantor Partai","description":"<p>Ketua Umum PDI Perjuangan, Hj. Megawati Soekarnoputri Meresmikan 20 Kantor Partai<\/p>","author":55,"created_at":"2020-07-22 15:54:41","updated_at":"2020-11-06 08:33:36","author_name":"PDI Perjuangan"},{"id":2129,"id_album":190,"type":"image","path":"uploads\/image\/gallery\/g1_200722105408.jpg","title":"Ketua Umum PDI Perjuangan, Hj. Megawati Soekarnoputri Meresmikan 20 Kantor Partai","description":"<p>Ketua Umum PDI Perjuangan, Hj. Megawati Soekarnoputri Meresmikan 20 Kantor Partai<\/p>","author":55,"created_at":"2020-07-22 15:54:09","updated_at":"2020-11-06 08:33:46","author_name":"PDI Perjuangan"},{"id":2128,"id_album":190,"type":"image","path":"uploads\/image\/gallery\/c1_200722105309.jpg","title":"","description":"Ketua Umum PDI Perjuangan, Hj. Megawati Soekarnoputri Meresmikan 20 Kantor Partai","author":55,"created_at":"2020-07-22 15:53:09","updated_at":"2020-07-22 15:53:09","author_name":"PDI Perjuangan"},{"id":2127,"id_album":190,"type":"image","path":"uploads\/image\/gallery\/d1_200722105226.jpg","title":"","description":"Ketua Umum PDI Perjuangan, Hj. Megawati Soekarnoputri Meresmikan 20 Kantor Partai","author":55,"created_at":"2020-07-22 15:52:26","updated_at":"2020-07-22 15:52:26","author_name":"PDI Perjuangan"},{"id":2126,"id_album":190,"type":"image","path":"uploads\/image\/gallery\/a1_200722105135.jpg","title":"","description":"Ketua Umum PDI Perjuangan, Hj. Megawati Soekarnoputri Meresmikan 20 Kantor Partai","author":55,"created_at":"2020-07-22 15:51:35","updated_at":"2020-07-22 15:51:35","author_name":"PDI Perjuangan"},{"id":2123,"id_album":187,"type":"image","path":"uploads\/image\/gallery\/13_200220112516.jpg","title":"Megawati Soekarnoputri sampaikan pengarahan kepada 50 paslon Pilkada Serentak tahun 2020","description":"<p>-<\/p>","author":55,"created_at":"2020-02-20 17:25:16","updated_at":"2020-11-01 10:25:47","author_name":"PDI Perjuangan"},{"id":2122,"id_album":187,"type":"image","path":"uploads\/image\/gallery\/12_200220112504.jpg","title":"","description":"Megawati Soekarnoputri sampaikan pengarahan kepada 50 paslon Pilkada Serentak tahun 2020","author":55,"created_at":"2020-02-20 17:25:04","updated_at":"2020-02-20 17:25:04","author_name":"PDI Perjuangan"},{"id":2121,"id_album":187,"type":"image","path":"uploads\/image\/gallery\/11_200220112451.jpg","title":"","description":"Megawati Soekarnoputri sampaikan pengarahan kepada 50 paslon Pilkada Serentak tahun 2020","author":55,"created_at":"2020-02-20 17:24:51","updated_at":"2020-02-20 17:24:51","author_name":"PDI Perjuangan"},{"id":2120,"id_album":187,"type":"image","path":"uploads\/image\/gallery\/10_200220112438.jpg","title":"","description":"Megawati Soekarnoputri sampaikan pengarahan kepada 50 paslon Pilkada Serentak tahun 2020","author":55,"created_at":"2020-02-20 17:24:38","updated_at":"2020-02-20 17:24:38","author_name":"PDI Perjuangan"}],"first_page_url":"http:\/\/atur.biar.pw\/api\/gallery\/data?page=1","from":1,"last_page":188,"last_page_url":"http:\/\/atur.biar.pw\/api\/gallery\/data?page=188","next_page_url":"http:\/\/atur.biar.pw\/api\/gallery\/data?page=2","path":"http:\/\/atur.biar.pw\/api\/gallery\/data","per_page":10,"prev_page_url":null,"to":10,"total":1879}}